{
  "kind": "collectionType",
  "collectionName": "tables",
  "info": {
    "singularName": "table",
    "pluralName": "tables",
    "displayName": "table",
    "description": ""
  },
  "options": {
    "draftAndPublish": true
  },
  "pluginOptions": {},
  "attributes": {
    "table_number": {
      "type": "integer"
    },
    "seats": {
      "type": "integer"
    },
    "wedding_id": {
      "type": "relation",
      "relation": "oneToOne",
      "target": "api::wedding.wedding"
    }
  }
}
